{
  "vars": {},
  "css": [
    "print.less",
    "type.less",
    "code.less",
    "grid.less",
    "tables.less",
    "forms.less",
    "buttons.less",
    "glyphicons.less",
    "button-groups.less",
    "navs.less",
    "navbar.less",
    "labels.less",
    "thumbnails.less",
    "media.less",
    "list-group.less",
    "panels.less",
    "wells.less",
    "dropdowns.less",
    "utilities.less",
    "responsive-utilities.less",
    "component-animations.less"
  ],
  "js": [
    "button.js",
    "dropdown.js",
    "tab.js",
    "affix.js",
    "collapse.js",
    "scrollspy.js",
    "transition.js"
  ]
}