<?xml version="1.0" encoding="UTF-8" standalone="no"?>
<!DOCTYPE svg PUBLIC "-//W3C//DTD SVG 1.1//EN" "http://www.w3.org/Graphics/SVG/1.1/DTD/svg11.dtd" >
<svg xmlns="http://www.w3.org/2000/svg">
<metadata></metadata>
<defs>
<font horiz-adv-x="1024" id="triquadtethex">
<font-face units-per-em="1024" font-family="triquadtethex icons" />
<missing-glyph d="M0,0h1000v1024h-1000z" />
<glyph glyph-name="tri" unicode="D"
   d="M 0,866.0254 500,0 l 500,866.0254 z m 826.7949,-100 L 500,200 173.2051,766.0254 z" />
<glyph glyph-name="quad" unicode="Q"
   d="m 170.9815,794.32095 0,-658.037 658.037,0 0,658.037 z m 100,-100 458.037,0 0,-458.037 -458.037,0 z" />
<glyph glyph-name="tet" unicode="T"
   d="M 500,930.60485 34.69755,465.30245 500,0 965.30245,465.30245 z M 450,739.1835 450,191.42135 176.11895,465.30245 z" />
<glyph glyph-name="hex" unicode="H"
   d="m 500,816.4966 -353.5534,-204.12415 0,-408.2483 L 500,0 l 353.5534,204.12415 0,408.2483 z m 0,-115.47006 203.5534,-117.5216 -203.5534,-117.5216, -203.5534,117.5216, z M 450,129.9038 l -203.5534,117.5216 0,235.0432 203.5534,-117.5216 z" />
<!-- key icon modified from Entypo pictograms by Daniel Bruce www.entypo.com -->
<glyph glyph-name="key" unicode="K"
   d="M 884.5000 236.3125c -25.0938 -148.9062 -161.0000 -248.3438 -303.4375 -222.0625 -142.5000 26.2500 -262.6875 140.8125 -237.5938 289.6875 5.4375 32.0625 20.4062 82.2500 38.1562 118.2500l -258.7500 386.1562c -9.5625 14.2500 -14.9375 39.9375 -12.0938 57.0625l 16.6562 98.5625c 2.9062 17.0938 18.6562 28.5938 35.0000 25.5938l 75.8125 -13.9375c 16.4062 -3.0625 37.1562 -17.4375 46.1875 -32.0625l 103.2500 -166.5625 69.2500 -12.8125 119.4375 -193.9062c 39.3125 6.9375 95.5938 4.5938 128.9062 -1.5625 142.5625 -26.3125 204.4062 -183.5625 179.2500 -332.4375zM 758.3125 312.5938c -39.1875 58.4375 -79.1562 17.2500 -135.1562 -23.7500 -55.9375 -40.9375 -106.7500 -66.1562 -67.5625 -124.5938 39.1875 -58.5000 116.3125 -72.7500 172.3125 -31.7500 56.0000 40.9375 69.5938 121.6562 30.4062 180.0938z" />
</font>
</defs>
</svg>
